Pack														Map													Zone																																																																																									Connections													
Field count							Options																					Type					Restrictions				Player towns					Neutral towns					Town types										Minimum mines							Mine Density							Terrain											Monsters													Treasure									Options												Zones		Options							Restrictions			
Town	Terrain	Zone type	Pack new	Map new	Zone new	Connection new	Name	Description	Town selection	Heroes	Mirror	Tags	Max Battle Rounds	Name	Minimum Size	Maximum Size	Artifacts	Combo Arts	Spells	Secondary skills	Objects	Rock blocks	Zone sparseness	Special weeks disabled	Spell Research	Anarchy	Id	human start	computer start	Treasure	Junction	Base Size	Minimum human positions	Maximum human positions	Minimum total positions	Maximum total positions	Ownership	Minimum towns	Minimum castles	Town Density	Castle Density	Minimum towns	Minimum castles	Town Density	Castle Density	Towns are of same type	Castle	Rampart	Tower	Inferno	Necropolis	Dungeon	Stronghold	Fortress	Conflux	Cove	Wood	Mercury	Ore	Sulfur	Crystal	Gems	Gold	Wood	Mercury	Ore	Sulfur	Crystal	Gems	Gold	Match to town	Dirt	Sand	Grass	Snow	Swamp	Rough	Cave	Lava	Highlands	Wasteland	Strength	Match to town	Neutral	Castle	Rampart	Tower	Inferno	Necropolis	Dungeon	Stronghold	Fortress	Conflux	Cove	Low	High	Density	Low	High	Density	Low	High	Density	Placement	Objects	Minimum objects	Image settings	Force neutral creatures	Allow non-coherent road	Zone repulsion	Town Hint	Monsters disposition (standard)	Monsters disposition (custom)	Monsters joining percentage	Monsters join only for money	Zone 1	Zone 2	Value	Wide	Border Guard	Road	Type	Fictive	Portal repulsion	Minimum human positions	Maximum human positions	Minimum total positions	Maximum total positions
10	10	4	7	10	12	4	3battles	"You fight 3 seperate battles. You cannot pass guards if you do not have at least one hero or castel in any biom connected (already defeated guard) to the entered biom.

made by zyczy ver 1.0"					100	3battles	9	25									x		1	x				12	1	2	2	2	1		1								x	x	x	x	x	x	x	x	x	x	1		1												x											weak		x	x	x	x	x	x	x	x	x	x	x	16000	22000	1	5000	16000	6	300	5000	9		+145 0 d d d d 		1885.15 726.858					3		1	x	1	4	6000			+				1	2	2	2	
																											2	x				15	1	2	2	2	1		1								x	x	x	x	x	x	x	x	x	x	1		1												x											weak		x	x	x	x	x	x	x	x	x	x	x	16000	22000	1	5000	16000	6	300	5000	9		+145 0 d d d d 		1568.77 505.999				s1	3		1	x	1	7	6000			+	ground			1	2	2	2	
																											3	x				18	1	2	2	2	1		1			1					x	x	x	x	x	x	x	x	x	x	1		1												x											weak		x	x	x	x	x	x	x	x	x	x	x	16000	22000	1	5000	16000	6	300	5000	9		+145 0 d d d d 		1534.51 887.89				s1_p	3		1	x	2	5	16000			+				1	2	2	2	
																											4	x				12	1	2	2	2	2		1								x	x	x	x	x	x	x	x	x	x	1		1												x											weak		x	x	x	x	x	x	x	x	x	x	x	16000	22000	1	5000	16000	6	300	5000	9		+145 0 d d d d 		1862.1 804.646					3		1	x	2	8	16000			+	ground			1	2	2	2	
																											5	x				15	1	2	2	2	2		1								x	x	x	x	x	x	x	x	x	x	1		1												x											weak		x	x	x	x	x	x	x	x	x	x	x	16000	22000	1	5000	16000	6	300	5000	9		+145 0 d d d d 		1651.09 483.155				s4	3		1	x	3	6	26000			+				1	2	2	2	
																											6	x				18	1	2	2	2	2		1			1					x	x	x	x	x	x	x	x	x	x	1		1												x											weak		x	x	x	x	x	x	x	x	x	x	x	16000	22000	1	5000	16000	6	300	5000	9		+145 0 d d d d 		1477.45 829.093				s4_p	3		1	x	3	9	26000			+	ground			1	2	2	2	
																											7			x		12	1	2	2	2						1					x																																		x	strong		x	x	x	x	x	x	x	x	x	x	x	15000	20000	1	10000	15000	6	3000	6000	9				1748.56 730.778					3		1	x	4	7	6000			+	ground			1	2	2	2	
																											8			x		15	1	2	2	2						1					x																																		x	strong		x	x	x	x	x	x	x	x	x	x	x	15000	20000	1	10000	15000	6	3000	6000	9				1641.92 619.175					3		1	x	5	8	16000			+	ground			1	2	2	2	
																											9			x		18	1	2	2	2						1					x																										x									strong		x	x	x	x	x	x	x	x	x	x	x	15000	20000	1	10000	15000	6	3000	6000	9				1599.22 766.976					3		1	x	6	9	26000			+	ground			1	2	2	2	
																																																																																																																				7	8	100000			+	ground			1	2	2	2	
																																																																																																																				7	9	100000			+	ground			1	2	2	2	
																																																																																																																				8	9	100000			+	ground			1	2	2	2	
